{
    "name": "UP-TO-DATE 2018 β",
    "cordova": {
        "plugins": {
            "monaca-plugin-monaca-core": {},
            "cordova-custom-config": {},
            "cordova-plugin-whitelist": {},
            "cordova-plugin-splashscreen": {},
            "cordova-plugin-file": {},
            "cordova-plugin-dialogs": {},
            "cordova-plugin-inappbrowser": {},
            "cordova-sqlite-storage": {}
        }
    },
    "dependencies": {
        "monaca-plugin-monaca-core": "3.2.0",
        "cordova-custom-config": "5.0.2",
        "cordova-plugin-whitelist": "1.3.3",
        "cordova-plugin-splashscreen": "5.0.1",
        "cordova-plugin-file": "5.0.0",
        "cordova-plugin-dialogs": "2.0.1",
        "cordova-plugin-inappbrowser": "2.0.1",
        "cordova-sqlite-storage": ""
    }
}